GB      2000-01-01 00:00:00+00:00             1.870318                  0.104466
        2001-01-01 00:00:00+00:00             2.038409                  0.143015
        2002-01-01 00:00:00+00:00             1.913440                  0.161804
        2003-01-01 00:00:00+00:00             2.078277                  0.180355
        2004-01-01 00:00:00+00:00             1.996110                  0.211515
        2005-01-01 00:00:00+00:00             2.045992                  0.261092
        2006-01-01 00:00:00+00:00             2.232847                  0.278294
        2007-01-01 00:00:00+00:00             2.034030                  0.288842
        2008-01-01 00:00:00+00:00             1.782124                  0.311604
        2009-01-01 00:00:00+00:00             1.448235                  0.365093
        2010-01-01 00:00:00+00:00             1.491958                  0.393001
        2011-01-01 00:00:00+00:00             1.516745                  0.518267
        2012-01-01 00:00:00+00:00             1.970156                  0.605780
        2013-01-01 00:00:00+00:00             1.777463                  0.758790
        2014-01-01 00:00:00+00:00             1.360446                  0.908584
        2015-01-01 00:00:00+00:00             1.031437                  1.150744
        2016-01-01 00:00:00+00:00             0.432857                  1.183002
        2017-01-01 00:00:00+00:00             0.319540                  1.397878
        2018-01-01 00:00:00+00:00             0.248313                  1.558125