[
    {
        "category": "Productions",
        "code": "COAL_PRODUCTION_MTOE",
        "description": "",
        "endingYear": 2018,
        "name": "Coal production",
        "sourceAttribution": "IEA",
        "sourceDescriptionUrl": "https://www.iea.org/statistics/resources/balancedefinitions/#coalandpeat",
        "sourceUrl": "https://www.iea.org/sankey/",
        "startingYear": 1973,
        "unit": {
            "base": "toe",
            "factor": 1000000,
            "main": "Mtoe"
        }
    },
    {
        "category": "Consumptions",
        "code": "COAL_CONSUMPTION_MTOE",
        "description": "",
        "endingYear": 2018,
        "name": "Coal consumption",
        "sourceAttribution": "IEA",
        "sourceDescriptionUrl": "https://www.iea.org/statistics/resources/balancedefinitions/#coalandpeat",
        "sourceUrl": "https://www.iea.org/sankey/",
        "startingYear": 1973,
        "unit": {
            "base": "toe",
            "factor": 1000000,
            "main": "Mtoe"
        }
    },
    {
        "category": "Productions",
        "code": "GAS_PRODUCTION_MTOE",
        "description": "Dry marketable natural gas production within national boundaries, including offshore production and is measured after purification and extraction of NGL and sulphur.\nIncludes gas consumed by gas processing plants and gas transported by pipeline.\nExcludes quantities of gas that are re-injected, vented or flared.",
        "endingYear": 2018,
        "name": "Gas production",
        "sourceAttribution": "IEA",
        "sourceDescriptionUrl": "https://www.iea.org/statistics/resources/balancedefinitions/#naturalgas",
        "sourceUrl": "https://www.iea.org/sankey/",
        "startingYear": 1973,
        "unit": {
            "base": "toe",
            "factor": 1000000,
            "main": "Mtoe"
        }
    },
    {
        "category": "Consumptions",
        "code": "GAS_CONSUMPTION_MTOE",
        "description": "",
        "endingYear": 2018,
        "name": "Gas consumption",
        "sourceAttribution": "IEA",
        "sourceDescriptionUrl": "https://www.iea.org/statistics/resources/balancedefinitions/#naturalgas",
        "sourceUrl": "https://www.iea.org/sankey/",
        "startingYear": 1973,
        "unit": {
            "base": "toe",
            "factor": 1000000,
            "main": "Mtoe"
        }
    },
    {
        "category": "Productions",
        "code": "OIL_PRODUCTION_MTOE",
        "description": "",
        "endingYear": 2018,
        "name": "Oil production",
        "sourceAttribution": "IEA",
        "sourceDescriptionUrl": "https://www.iea.org/statistics/resources/balancedefinitions/#crudeoil",
        "sourceUrl": "https://www.iea.org/sankey/",
        "startingYear": 1973,
        "unit": {
            "base": "toe",
            "factor": 1000000,
            "main": "Mtoe"
        }
    },
    {
        "category": "Consumptions",
        "code": "OIL_CONSUMPTION_MTOE",
        "description": "",
        "endingYear": 2018,
        "name": "Oil consumption",
        "sourceAttribution": "IEA",
        "sourceDescriptionUrl": "https://www.iea.org/statistics/resources/balancedefinitions/#crudeoil",
        "sourceUrl": "https://www.iea.org/sankey/",
        "startingYear": 1973,
        "unit": {
            "base": "toe",
            "factor": 1000000,
            "main": "Mtoe"
        }
    },
    {
        "category": "Productions",
        "code": "HYDRO_PRODUCTION_MTOE",
        "description": "Hydro shows the energy content of the electricity produced in hydro power plants.\nExcludes output from pumped storage plants.",
        "endingYear": 2018,
        "name": "Hydroelectricity production",
        "sourceAttribution": "IEA",
        "sourceDescriptionUrl": "https://www.iea.org/statistics/resources/balancedefinitions/#hydro",
        "sourceUrl": "https://www.iea.org/sankey/",
        "startingYear": 1973,
        "unit": {
            "base": "toe",
            "factor": 1000000,
            "main": "Mtoe"
        }
    },
    {
        "category": "Productions",
        "code": "NUCLEAR_PRODUCTION_MTOE",
        "description": "Nuclear shows the primary heat equivalent of the electricity produced by a nuclear power plant with an average thermal efficiency of 33 per cent.",
        "endingYear": 2018,
        "name": "Nuclear production",
        "sourceAttribution": "IEA",
        "sourceDescriptionUrl": "https://www.iea.org/statistics/resources/balancedefinitions/#nuclear",
        "sourceUrl": "https://www.iea.org/sankey/",
        "startingYear": 1973,
        "unit": {
            "base": "toe",
            "factor": 1000000,
            "main": "Mtoe"
        }
    },
    {
        "category": "Productions",
        "code": "BIOFUELS_WASTE_PRODUCTION_MTOE",
        "description": "Biofuels & waste is comprised of solid biofuels, liquid biofuels, biogases, industrial waste and municipal waste.",
        "endingYear": 2018,
        "name": "Biofuels & waste production",
        "sourceAttribution": "IEA",
        "sourceDescriptionUrl": "https://www.iea.org/statistics/resources/balancedefinitions/#biofuelsandwaste",
        "sourceUrl": "https://www.iea.org/sankey/",
        "startingYear": 1973,
        "unit": {
            "base": "toe",
            "factor": 1000000,
            "main": "Mtoe"
        }
    },
    {
        "category": "Consumptions",
        "code": "BIOFUELS_WASTE_CONSUMPTION_MTOE",
        "description": "Biofuels & waste is comprised of solid biofuels, liquid biofuels, biogases, industrial waste and municipal waste.",
        "endingYear": 2018,
        "name": "Biofuels & waste consumption",
        "sourceAttribution": "IEA",
        "sourceDescriptionUrl": "https://www.iea.org/statistics/resources/balancedefinitions/#biofuelsandwaste",
        "sourceUrl": "https://www.iea.org/sankey/",
        "startingYear": 1973,
        "unit": {
            "base": "toe",
            "factor": 1000000,
            "main": "Mtoe"
        }
    },
    {
        "category": "Productions",
        "code": "GEOTH_SOLAR_WIND_TIDE_PRODUCTION_MTOE",
        "description": "Geothermal, solar, etc. shows production of geothermal, solar, wind and tide/wave/ocean energy and the use of these energy forms for electricity and heat generation.\nThe quantity of geothermal energy entering electricity generation is inferred from the electricity production at geothermal plants assuming an average thermal efficiency of 10%.\nFor others, the quantities entering electricity generation are equal to the electrical energy generated.",
        "endingYear": 2018,
        "name": "Geothermal, solar, wind, tide, energy production",
        "sourceAttribution": "IEA",
        "sourceDescriptionUrl": "https://www.iea.org/statistics/resources/balancedefinitions/#geothermalsolaretc",
        "sourceUrl": "https://www.iea.org/sankey/",
        "startingYear": 1973,
        "unit": {
            "base": "toe",
            "factor": 1000000,
            "main": "Mtoe"
        }
    },
    {
        "category": "Consumptions",
        "code": "PRIMARY_ENERGY_CONSUMPTION_MTOE",
        "description": "Total consumption of energy sources contained in the environment, such as raw fuels or renewables sources of energy.\nAlso known as 'total primary energy supply', is made up of: primary energy production + imports - exports - international marine/aviation bunkers +/- stock changes",
        "endingYear": 2018,
        "name": "Primary energy consumption",
        "sourceAttribution": "IEA",
        "sourceDescriptionUrl": "https://www.iea.org/statistics/resources/balancedefinitions/",
        "sourceUrl": "http://energyatlas.iea.org/#!/tellmap/-1002896040/0",
        "startingYear": 1973,
        "unit": {
            "base": "toe",
            "factor": 1000000,
            "main": "Mtoe"
        }
    },
    {
        "category": "Others",
        "code": "POPULATION",
        "description": "",
        "endingYear": 2018,
        "name": "Population",
        "sourceAttribution": "World Bank",
        "sourceDescriptionUrl": "https://databank.worldbank.org/data/reports.aspx?source=2&type=metadata&series=SP.POP.TOTL",
        "sourceUrl": "https://data.worldbank.org/indicator/SP.POP.TOTL",
        "startingYear": 1973,
        "unit": {
            "base": "people",
            "factor": 1000000,
            "main": "million people"
        }
    },
    {
        "category": "Others",
        "code": "GDP_2010_USD",
        "description": "GDP at purchaser's prices is the sum of gross value added by all resident producers in the economy plus any product taxes and minus any subsidies not included in the value of the products.\nData are in constant 2010 U.S. dollars.\nDollar figures for GDP are converted from domestic currencies using 2010 official exchange rates.",
        "endingYear": 2018,
        "name": "Gross Domestic Product",
        "sourceAttribution": "World Bank",
        "sourceDescriptionUrl": "https://databank.worldbank.org/data/reports.aspx?source=2&type=metadata&series=NY.GDP.MKTP.KD",
        "sourceUrl": "https://data.worldbank.org/indicator/NY.GDP.MKTP.KD",
        "startingYear": 1973,
        "unit": {
            "base": "$\u00a0(2010)",
            "factor": 1000000000,
            "main": "billion 2010 USD"
        }
    },
    {
        "category": "Others",
        "code": "GDP_USD",
        "description": "GDP at purchaser's prices is the sum of gross value added by all resident producers in the economy plus any product taxes and minus any subsidies not included in the value of the products.\nData are in current U.S. dollars.\nDollar figures for GDP are converted from domestic currencies using signle year official exchange rates.",
        "endingYear": 2018,
        "name": "Gross Domestic Product (current US$)",
        "sourceAttribution": "World Bank",
        "sourceDescriptionUrl": "https://databank.worldbank.org/data/reports.aspx?source=2&type=metadata&series=NY.GDP.MKTP.CD",
        "sourceUrl": "https://data.worldbank.org/indicator/NY.GDP.MKTP.CD",
        "startingYear": 1973,
        "unit": {
            "base": "$",
            "factor": 1000000000,
            "main": "billion\u00a0USD"
        }
    },
    {
        "category": "Others",
        "code": "COAL_RENTS_IN_GDP",
        "description": "Coal rents are the difference between the value of crude oil production at world prices and total costs of production.",
        "endingYear": 2018,
        "isIntensive": true,
        "name": "Coal rents",
        "sourceAttribution": "World Bank",
        "sourceDescriptionUrl": "https://databank.worldbank.org/data/reports.aspx?source=2&type=metadata&series=NY.GDP.COAL.RT.ZS",
        "sourceUrl": "https://data.worldbank.org/indicator/NY.GDP.COAL.RT.ZS",
        "startingYear": 1973,
        "unit": {
            "base": "%",
            "factor": 1,
            "main": "%"
        }
    },
    {
        "category": "Others",
        "code": "OIL_RENTS_IN_GDP",
        "description": "Oil rents are the difference between the value of crude oil production at world prices and total costs of production.",
        "endingYear": 2018,
        "isIntensive": true,
        "name": "Oil rents",
        "sourceAttribution": "World Bank",
        "sourceDescriptionUrl": "https://databank.worldbank.org/data/reports.aspx?source=2&type=metadata&series=NY.GDP.PETR.RT.ZS",
        "sourceUrl": "https://data.worldbank.org/indicator/NY.GDP.PETR.RT.ZS",
        "startingYear": 1973,
        "unit": {
            "base": "%",
            "factor": 1,
            "main": "%"
        }
    },
    {
        "category": "Others",
        "code": "GAS_RENTS_IN_GDP",
        "description": "Natural gas rents are the difference between the value of crude oil production at world prices and total costs of production.",
        "endingYear": 2018,
        "isIntensive": true,
        "name": "Natural gas rents",
        "sourceAttribution": "World Bank",
        "sourceDescriptionUrl": "https://databank.worldbank.org/data/reports.aspx?source=2&type=metadata&series=NY.GDP.NGAS.RT.ZS",
        "sourceUrl": "https://data.worldbank.org/indicator/NY.GDP.NGAS.RT.ZS",
        "startingYear": 1973,
        "unit": {
            "base": "%",
            "factor": 1,
            "main": "%"
        }
    },
    {
        "category": "Climate change",
        "code": "FOSSIL_CO2_EMISSIONS_MT",
        "description": "Carbon dioxide emissions are those stemming from the burning of fossil fuels.",
        "endingYear": 2018,
        "name": "CO\u2082 Emissions from fossil fuels",
        "sourceAttribution": "IEA",
        "sourceDescriptionUrl": "http://energyatlas.iea.org/#!/tellmap/1378539487/0",
        "sourceUrl": "http://energyatlas.iea.org/#!/tellmap/1378539487/0",
        "startingYear": 1973,
        "unit": {
            "base": "t",
            "factor": 1000000,
            "main": "Mt"
        }
    },
    {
        "category": "Climate change",
        "code": "TOTAL_GHG_EMISSIONS",
        "description": "",
        "endingYear": 2018,
        "name": "Total greenhouse gas emissions",
        "sourceAttribution": "World Bank",
        "startingYear": 1973,
        "unit": {
            "base": "tCO2eq",
            "factor": 1000000,
            "main": "MtCO2eq"
        }
    },
    {
        "category": "Productions",
        "code": "PRIMARY_ENERGY_PRODUCTION_MTOE",
        "description": "Total production of energy sources contained in the environment, such as raw fuels or renewables sources of energy.",
        "endingYear": 2018,
        "name": "Primary energy production",
        "sourceAttribution": "IEA",
        "sourceDescriptionUrl": "https://www.iea.org/statistics/resources/balancedefinitions/#iproduction",
        "sourceUrl": "https://www.iea.org/sankey/",
        "startingYear": 1973,
        "unit": {
            "base": "toe",
            "factor": 1000000,
            "main": "Mtoe"
        }
    },
    {
        "category": "Electricity",
        "code": "ELECTRICITY_GENERATION_TWH",
        "description": "Total electricity generation. Gap between this data and aggregation of generation by fuels is due to approximation in power plants efficiencies.",
        "endingYear": 2018,
        "name": "Electricity generation",
        "sourceAttribution": "IEA",
        "sourceDescriptionUrl": "https://www.iea.org/statistics/resources/balancedefinitions/#electricity",
        "sourceUrl": "https://www.iea.org/sankey/",
        "startingYear": 1973,
        "unit": {
            "base": "kWh",
            "factor": 1000000000,
            "main": "TWh"
        }
    },
    {
        "category": "Electricity",
        "code": "OIL_ELECTRICITY_GENERATION_TWH",
        "description": "Inferred from inputs to plant stations assuming an efficiency of 35%.",
        "endingYear": 2018,
        "name": "Electricity generation from oil",
        "sourceAttribution": "IEA",
        "sourceUrl": "https://www.iea.org/sankey/",
        "startingYear": 1973,
        "unit": {
            "base": "kWh",
            "factor": 1000000000,
            "main": "TWh"
        }
    },
    {
        "category": "Electricity",
        "code": "GAS_ELECTRICITY_GENERATION_TWH",
        "description": "Inferred from inputs to plant stations assuming an efficiency of 45%.",
        "endingYear": 2018,
        "name": "Electricity generation from gas",
        "sourceAttribution": "IEA",
        "sourceUrl": "https://www.iea.org/sankey/",
        "startingYear": 1973,
        "unit": {
            "base": "kWh",
            "factor": 1000000000,
            "main": "TWh"
        }
    },
    {
        "category": "Electricity",
        "code": "COAL_ELECTRICITY_GENERATION_TWH",
        "description": "Inferred from inputs to plant stations assuming an efficiency of 33%.",
        "endingYear": 2018,
        "name": "Electricity generation from coal",
        "sourceAttribution": "IEA",
        "sourceUrl": "https://www.iea.org/sankey/",
        "startingYear": 1973,
        "unit": {
            "base": "kWh",
            "factor": 1000000000,
            "main": "TWh"
        }
    },
    {
        "category": "Electricity",
        "code": "BIOFUELS_WASTE_ELECTRICITY_GENERATION_TWH",
        "description": "Inferred from inputs to plant stations assuming an efficiency of 33%.",
        "endingYear": 2018,
        "name": "Electricity generation from biofuels & waste",
        "sourceAttribution": "IEA",
        "sourceUrl": "https://www.iea.org/sankey/",
        "startingYear": 1973,
        "unit": {
            "base": "kWh",
            "factor": 1000000000,
            "main": "TWh"
        }
    },
    {
        "category": "Electricity",
        "code": "GEOTH_SOLAR_WIND_TIDE_ELECTRICITY_GENERATION_TWH",
        "description": "",
        "endingYear": 2018,
        "name": "Electricity generation from wind, solar, geothermal and tide",
        "sourceAttribution": "IEA",
        "sourceUrl": "https://www.iea.org/sankey/",
        "startingYear": 1973,
        "unit": {
            "base": "kWh",
            "factor": 1000000000,
            "main": "TWh"
        }
    },
    {
        "category": "Consumptions",
        "code": "FINAL_ENERGY_CONSUMPTION_MTOE",
        "description": "Final energy consumption is the total energy consumed by end users, such as households, industry and agriculture.\nIt is the energy which reaches the final consumer's door and excludes that which is used by the energy sector itself.",
        "endingYear": 2018,
        "name": "Final energy consumption",
        "sourceAttribution": "IEA",
        "startingYear": 1973,
        "unit": {
            "base": "toe",
            "factor": 1000000,
            "main": "Mtoe"
        }
    },
    {
        "category": "Reserves",
        "code": "COAL_RESERVES_GT",
        "description": "",
        "endingYear": 2018,
        "name": "Coal Reserves",
        "sourceAttribution": "EIA",
        "startingYear": 1973,
        "unit": {
            "base": "kt",
            "factor": 1000000,
            "main": "Gt"
        }
    },
    {
        "category": "Reserves",
        "code": "OIL_RESERVES_BB",
        "description": "",
        "endingYear": 2018,
        "name": "Oil Reserves",
        "sourceAttribution": "EIA",
        "startingYear": 1973,
        "unit": {
            "base": "barrels",
            "factor": 1000000000,
            "main": "billion\u00a0barrels"
        }
    },
    {
        "category": "Reserves",
        "code": "GAS_RESERVES_BCM",
        "description": "",
        "endingYear": 2018,
        "name": "Gas Reserves",
        "sourceAttribution": "EIA",
        "startingYear": 1973,
        "unit": {
            "base": "m3",
            "factor": 1000000000,
            "main": "billion m3"
        }
    },
    {
        "category": "Electricity",
        "code": "WIND_CAPACITY_GW",
        "description": "",
        "endingYear": 2018,
        "name": "Wind capacity",
        "sourceAttribution": "EIA",
        "startingYear": 1973,
        "unit": {
            "base": "W",
            "factor": 1000000000,
            "main": "GW"
        }
    },
    {
        "category": "Electricity",
        "code": "SOLAR_CAPACITY_GW",
        "description": "",
        "endingYear": 2018,
        "name": "Solar capacity",
        "sourceAttribution": "EIA",
        "startingYear": 1973,
        "unit": {
            "base": "W",
            "factor": 1000000000,
            "main": "GW"
        }
    },
    {
        "category": "Electricity",
        "code": "NUCLEAR_CAPACITY_GW",
        "description": "",
        "endingYear": 2018,
        "name": "Nuclear capacity",
        "sourceAttribution": "EIA",
        "startingYear": 1973,
        "unit": {
            "base": "W",
            "factor": 1000000000,
            "main": "GW"
        }
    },
    {
        "category": "Electricity",
        "code": "FOSSIL_FUELS_CAPACITY_GW",
        "description": "",
        "endingYear": 2018,
        "name": "Fossil fuels capacity",
        "sourceAttribution": "EIA",
        "startingYear": 1973,
        "unit": {
            "base": "W",
            "factor": 1000000000,
            "main": "GW"
        }
    },
    {
        "category": "Electricity",
        "code": "HYDRO_CAPACITY_GW",
        "description": "",
        "endingYear": 2018,
        "name": "Hydroelectricity capacity",
        "sourceAttribution": "EIA",
        "startingYear": 1973,
        "unit": {
            "base": "W",
            "factor": 1000000000,
            "main": "GW"
        }
    },
    {
        "category": "Electricity",
        "code": "GEOTHERMAL_CAPACITY_GW",
        "description": "",
        "endingYear": 2018,
        "name": "Geothermal capacity",
        "sourceAttribution": "EIA",
        "startingYear": 1973,
        "unit": {
            "base": "W",
            "factor": 1000000000,
            "main": "GW"
        }
    },
    {
        "category": "Electricity",
        "code": "BIOMASS_WASTE_CAPACITY_GW",
        "description": "",
        "endingYear": 2018,
        "name": "Biomass & waste capacity",
        "sourceAttribution": "EIA",
        "startingYear": 1973,
        "unit": {
            "base": "W",
            "factor": 1000000000,
            "main": "GW"
        }
    },
    {
        "category": "Climate change",
        "code": "SHARE_CO2_EMISSIONS_FROM_ELECTRICITY_HEAT",
        "description": "",
        "endingYear": 2018,
        "isIntensive": true,
        "name": "Share of CO2 emissions from elec. & heat prod.",
        "sourceAttribution": "World Bank",
        "startingYear": 1973,
        "unit": {
            "base": "%",
            "factor": 1,
            "main": "%"
        }
    },
    {
        "category": "Electricity",
        "code": "WIND_GENERATION_TWH",
        "description": "",
        "endingYear": 2018,
        "name": "Wind generation",
        "sourceAttribution": "EIA",
        "startingYear": 1973,
        "unit": {
            "base": "kWh",
            "factor": 1000000000,
            "main": "TWh"
        }
    },
    {
        "category": "Electricity",
        "code": "SOLAR_GENERATION_TWH",
        "description": "",
        "endingYear": 2018,
        "name": "Solar generation",
        "sourceAttribution": "EIA",
        "startingYear": 1973,
        "unit": {
            "base": "kWh",
            "factor": 1000000000,
            "main": "TWh"
        }
    },
    {
        "category": "Others",
        "code": "HUMAN_DEVELOPMENT_INDEX",
        "description": "The HDI was created to emphasize that people and their capabilities should be the ultimate criteria for assessing the development of a country, not economic growth alone.",
        "endingYear": 2018,
        "isIntensive": true,
        "name": "Human development index",
        "sourceAttribution": "HDRO",
        "sourceDescriptionUrl": "http://hdr.undp.org/en/content/human-development-index-hdi",
        "sourceUrl": "http://hdr.undp.org/en/data",
        "startingYear": 1990,
        "unit": {
            "base": "",
            "factor": 1,
            "main": ""
        }
    },
    {
        "category": "Others",
        "code": "INEQUALITY_ADJUSTED_HDI",
        "description": "The IHDI combines a country\u2019s average achievements in health, education and income with how those achievements are distributed among country\u2019s population by \u201cdiscounting\u201d each dimension\u2019s average value according to its level of inequality.",
        "endingYear": 2018,
        "isIntensive": true,
        "name": "Inequality-adjusted Human Development Index",
        "sourceAttribution": "HDRO",
        "sourceDescriptionUrl": "http://hdr.undp.org/en/content/inequality-adjusted-human-development-index-ihdi",
        "sourceUrl": "http://hdr.undp.org/en/composite/IHDI",
        "startingYear": 1990,
        "unit": {
            "base": "",
            "factor": 1,
            "main": ""
        }
    },
    {
        "category": "Others",
        "code": "OIL_PRICE_USD",
        "description": "",
        "endingYear": 2018,
        "isGlobal": true,
        "isIntensive": true,
        "name": "Oil price",
        "sourceAttribution": "BP",
        "sourceUrl": "https://www.bp.com/en/global/corporate/energy-economics/statistical-review-of-world-energy/downloads.html",
        "startingYear": 1973,
        "unit": {
            "base": "$",
            "factor": 1,
            "main": "$"
        }
    }
]